{"menu": [
    {"url": "dashboard", "name":"Dashboard", "icon":"feather icon-home", "i18n":"Dashboard", "allow": ["admin", "vendor_admin"] },
    {"url": "customers", "name":"Customers", "slug":"customers", "icon":"feather icon-user", "i18n":"Customers", "allow": ["admin"]},
    {"url": "vendor", "name":"Vendors", "slug":"vendor", "icon":"fa fa-industry", "i18n":"Vendors", "allow": ["admin"]},
    {"url": "orders", "name":"Orders", "slug":"orders", "icon":"feather icon-layers", "i18n":"Orders", "allow": ["admin", "vendor_admin"]},
    {"url": "", "name":"Manage", "icon":"fa fa-tasks", "i18n":"Manage", "allow": ["admin"],
      "submenu":[
        {"url": "services", "name":"Manage Services", "icon":"fa fa-steam", "i18n":"nav.sk_layout_2_columns"},
        {"url": "cars", "name":"Manage Cars", "icon":"fa fa-taxi", "i18n":"nav.sk_layout_fixed_navbar"}
      ]
    },
    {"url": "users", "name":"Users", "slug":"users", "icon":"fa fa-users", "i18n":"Users", "allow": ["admin", "vendor_admin"]},
    {"url": "promotions", "name":"Promotions", "slug":"promotions", "icon":"fa fa-tag", "i18n":"Promotions", "allow": ["admin", "vendor_admin"]},
    {"url": "vendor/{vendor_id}/edit", "name":"My Settings", "slug":"vendor/12/edit", "icon":"fa fa-industry", "i18n":"My Settings", "allow": ["vendor_admin"]},
    {"url": "reviews", "name":"Reviews", "slug":"reviews", "icon":"fa fa-star", "i18n":"Reviews", "allow": ["admin"]}
]}
